

	1] Queue

		A] java.util (UnBounded)

			1] Priority Queue(C)

			2] Deque(I)
				
				a] LinkedList(C)(1.2)
				b] ArrayDeque(C)

		B] java.util.concurrent(Bounded)

			a] BlockingQueue(I)

				1] PriorityBlockingQueue(C)	

				2] ArrayBlockingQueue(C)

				3] LinkedBlockingQueue(C)


