	


			ROLE				NAME


		GTK/Ul Team			1)Karan S Khedkar.
							2)Jay Jathar.
							3)Ganesh Bagav.
							4)Mangesh Manjare.
							5)Harshal Borse.
							6)Kartikeyan Charkupalli.


		C - Concepts			1)Karan S Khedkar.
							2)Kartikeyan Charkupalli.
							3)Jay Jathar.


		Numbers				1)Jay Jathar.
							2)Kartikeyan Charkupalli.
							3)Ganesh Bagav.

		Array				1)Ganesh Bagav.
							2)Kartikeyan Charkupalli.
							3)Mangesh Manjare.

		Pattern				1)Mangesh Manjare.
							2)Kartikeyan Charkupalli.
							3)Harshal Borse.
				
		String 				1)Harshal Borse.
							2)Jay Jathar
							

		Data Structure			1)Harshal Borse.
							2)Mangesh Manjare.

			
		The project is completed uneder the guidance of  
		Shashi Sir , Sachin Sir and Core2web Family.







